{
  "author_ids": [
    "a.LQLeICBLPrFqgLOY", 
    "a.UOI9E0TaxbpSJlWq", 
    "a.tJJJ65EikY8bsG5Q", 
    "a.0l1FEQJluH4T9Qb5", 
    "a.xTVpE85aIoERSi9b", 
    "a.YDdwMGXZoUrLGBXf", 
    "a.c0JIlpRzDEHMARG7", 
    "a.FWr6sWn3SdlWQ8ix", 
    "a.6QdkD27qPX02XCvc"
  ], 
  "lastedited_iso": "2016-12-06T16:36:21", 
  "group": "", 
  "padid": "different_orders_coexist", 
  "versions": [
    {
      "url": "/pad/p/different_orders_coexist", 
      "code": 200, 
      "type": "pad"
    }, 
    {
      "url": "/home/pi/etherdump/different_orders_coexist.raw.txt", 
      "path": "/home/pi/etherdump/different_orders_coexist.raw.txt", 
      "code": 200, 
      "type": "text"
    }, 
    {
      "url": "/home/pi/etherdump/different_orders_coexist.diff.html", 
      "path": "/home/pi/etherdump/different_orders_coexist.diff.html", 
      "code": 200, 
      "type": "diffhtml"
    }, 
    {
      "url": "/home/pi/etherdump/different_orders_coexist.raw.html", 
      "path": "/home/pi/etherdump/different_orders_coexist.raw.html", 
      "code": 200, 
      "type": "html"
    }, 
    {
      "url": "/home/pi/etherdump/different_orders_coexist.meta.json", 
      "path": "/home/pi/etherdump/different_orders_coexist.meta.json", 
      "type": "meta"
    }
  ], 
  "lastedited_raw": 1481038581064, 
  "pad": "different_orders_coexist", 
  "pathbase": "/home/pi/etherdump/different_orders_coexist", 
  "revisions": 2864
}