{
  "author_ids": [
    "a.FWr6sWn3SdlWQ8ix"
  ], 
  "lastedited_iso": "2016-12-09T15:26:37", 
  "group": "", 
  "padid": "different_orders_friday", 
  "versions": [
    {
      "url": "/pad/p/different_orders_friday", 
      "code": 200, 
      "type": "pad"
    }, 
    {
      "url": "/home/pi/etherdump/different_orders_friday.raw.txt", 
      "path": "/home/pi/etherdump/different_orders_friday.raw.txt", 
      "code": 200, 
      "type": "text"
    }, 
    {
      "url": "/home/pi/etherdump/different_orders_friday.diff.html", 
      "path": "/home/pi/etherdump/different_orders_friday.diff.html", 
      "code": 200, 
      "type": "diffhtml"
    }, 
    {
      "url": "/home/pi/etherdump/different_orders_friday.raw.html", 
      "path": "/home/pi/etherdump/different_orders_friday.raw.html", 
      "code": 200, 
      "type": "html"
    }, 
    {
      "url": "/home/pi/etherdump/different_orders_friday.meta.json", 
      "path": "/home/pi/etherdump/different_orders_friday.meta.json", 
      "type": "meta"
    }
  ], 
  "lastedited_raw": 1481293597543, 
  "pad": "different_orders_friday", 
  "pathbase": "/home/pi/etherdump/different_orders_friday", 
  "revisions": 363
}