{
  "author_ids": [
    "a.FWr6sWn3SdlWQ8ix", 
    "a.TcGCuGXPTqTbipPo", 
    "a.my5QKcx5kpSVz2Sp", 
    "a.ENp6OwciJxug8imY", 
    "a.hTeGRIEC3KCNRWaC", 
    "a.tJJJ65EikY8bsG5Q", 
    "a.xTVpE85aIoERSi9b", 
    "a.H1ewq2NvTW6K3yzN", 
    "a.YDdwMGXZoUrLGBXf", 
    "a.6QdkD27qPX02XCvc"
  ], 
  "lastedited_iso": "2016-12-07T15:20:27", 
  "group": "", 
  "padid": "Diversies", 
  "versions": [
    {
      "url": "/pad/p/Diversies", 
      "code": 200, 
      "type": "pad"
    }, 
    {
      "url": "/home/pi/etherdump/Diversies.raw.txt", 
      "path": "/home/pi/etherdump/Diversies.raw.txt", 
      "code": 200, 
      "type": "text"
    }, 
    {
      "url": "/home/pi/etherdump/Diversies.diff.html", 
      "path": "/home/pi/etherdump/Diversies.diff.html", 
      "code": 200, 
      "type": "diffhtml"
    }, 
    {
      "url": "/home/pi/etherdump/Diversies.raw.html", 
      "path": "/home/pi/etherdump/Diversies.raw.html", 
      "code": 200, 
      "type": "html"
    }, 
    {
      "url": "/home/pi/etherdump/Diversies.meta.json", 
      "path": "/home/pi/etherdump/Diversies.meta.json", 
      "type": "meta"
    }
  ], 
  "lastedited_raw": 1481120427536, 
  "pad": "Diversies", 
  "pathbase": "/home/pi/etherdump/Diversies", 
  "revisions": 2105
}