{
  "author_ids": [
    "a.FWr6sWn3SdlWQ8ix", 
    "a.o8i1PiD1eAo606s8", 
    "a.YDdwMGXZoUrLGBXf", 
    "a.6SGQrrLg50AT5lCw"
  ], 
  "lastedited_iso": "2016-12-09T11:57:16", 
  "group": "", 
  "padid": "etherbox", 
  "versions": [
    {
      "url": "/pad/p/etherbox", 
      "code": 200, 
      "type": "pad"
    }, 
    {
      "url": "/home/pi/etherdump/etherbox.raw.txt", 
      "path": "/home/pi/etherdump/etherbox.raw.txt", 
      "code": 200, 
      "type": "text"
    }, 
    {
      "url": "/home/pi/etherdump/etherbox.diff.html", 
      "path": "/home/pi/etherdump/etherbox.diff.html", 
      "code": 200, 
      "type": "diffhtml"
    }, 
    {
      "url": "/home/pi/etherdump/etherbox.raw.html", 
      "path": "/home/pi/etherdump/etherbox.raw.html", 
      "code": 200, 
      "type": "html"
    }, 
    {
      "url": "/home/pi/etherdump/etherbox.meta.json", 
      "path": "/home/pi/etherdump/etherbox.meta.json", 
      "type": "meta"
    }
  ], 
  "lastedited_raw": 1481281036907, 
  "pad": "etherbox", 
  "pathbase": "/home/pi/etherdump/etherbox", 
  "revisions": 72
}