{
  "author_ids": [
    "a.yfoLjuMwIFbSggOq", 
    "a.0l1FEQJluH4T9Qb5", 
    "a.JGCUC7LQxyDTr3Yu", 
    "a.yjZjpPgUGyQFSgg5", 
    "a.jTXpL7vSeJftu2De", 
    "a.Rg8CbZT096X0CMFd"
  ], 
  "lastedited_iso": "2016-12-05T17:57:26", 
  "group": "", 
  "padid": "forking_and_conflict", 
  "versions": [
    {
      "url": "/pad/p/forking_and_conflict", 
      "code": 200, 
      "type": "pad"
    }, 
    {
      "url": "/home/pi/etherdump/forking_and_conflict.raw.txt", 
      "path": "/home/pi/etherdump/forking_and_conflict.raw.txt", 
      "code": 200, 
      "type": "text"
    }, 
    {
      "url": "/home/pi/etherdump/forking_and_conflict.diff.html", 
      "path": "/home/pi/etherdump/forking_and_conflict.diff.html", 
      "code": 200, 
      "type": "diffhtml"
    }, 
    {
      "url": "/home/pi/etherdump/forking_and_conflict.raw.html", 
      "path": "/home/pi/etherdump/forking_and_conflict.raw.html", 
      "code": 200, 
      "type": "html"
    }, 
    {
      "url": "/home/pi/etherdump/forking_and_conflict.meta.json", 
      "path": "/home/pi/etherdump/forking_and_conflict.meta.json", 
      "type": "meta"
    }
  ], 
  "lastedited_raw": 1480957046765, 
  "pad": "forking_and_conflict", 
  "pathbase": "/home/pi/etherdump/forking_and_conflict", 
  "revisions": 4772
}