{
  "author_ids": [
    "a.JGCUC7LQxyDTr3Yu"
  ], 
  "lastedited_iso": "2016-12-05T15:23:08", 
  "group": "", 
  "padid": "index", 
  "versions": [
    {
      "url": "/pad/p/index", 
      "code": 200, 
      "type": "pad"
    }, 
    {
      "url": "/home/pi/etherdump/index.raw.txt", 
      "path": "/home/pi/etherdump/index.raw.txt", 
      "code": 200, 
      "type": "text"
    }, 
    {
      "url": "/home/pi/etherdump/index.diff.html", 
      "path": "/home/pi/etherdump/index.diff.html", 
      "code": 200, 
      "type": "diffhtml"
    }, 
    {
      "url": "/home/pi/etherdump/index.raw.html", 
      "path": "/home/pi/etherdump/index.raw.html", 
      "code": 200, 
      "type": "html"
    }, 
    {
      "url": "/home/pi/etherdump/index.meta.json", 
      "path": "/home/pi/etherdump/index.meta.json", 
      "type": "meta"
    }
  ], 
  "lastedited_raw": 1480947788785, 
  "pad": "index", 
  "pathbase": "/home/pi/etherdump/index", 
  "revisions": 2
}