{
  "author_ids": [
    "a.f7VpTF5YKwqtXHfG", 
    "a.JGCUC7LQxyDTr3Yu", 
    "a.t61dUNfBxZ1HC2ti", 
    "a.ENp6OwciJxug8imY"
  ], 
  "lastedited_iso": "2016-12-06T10:49:17", 
  "group": "", 
  "padid": "just_for_the_record", 
  "versions": [
    {
      "url": "/pad/p/just_for_the_record", 
      "code": 200, 
      "type": "pad"
    }, 
    {
      "url": "/home/pi/etherdump/just_for_the_record.raw.txt", 
      "path": "/home/pi/etherdump/just_for_the_record.raw.txt", 
      "code": 200, 
      "type": "text"
    }, 
    {
      "url": "/home/pi/etherdump/just_for_the_record.diff.html", 
      "path": "/home/pi/etherdump/just_for_the_record.diff.html", 
      "code": 200, 
      "type": "diffhtml"
    }, 
    {
      "url": "/home/pi/etherdump/just_for_the_record.raw.html", 
      "path": "/home/pi/etherdump/just_for_the_record.raw.html", 
      "code": 200, 
      "type": "html"
    }, 
    {
      "url": "/home/pi/etherdump/just_for_the_record.meta.json", 
      "path": "/home/pi/etherdump/just_for_the_record.meta.json", 
      "type": "meta"
    }
  ], 
  "lastedited_raw": 1481017757231, 
  "pad": "just_for_the_record", 
  "pathbase": "/home/pi/etherdump/just_for_the_record", 
  "revisions": 2830
}