{
  "author_ids": [
    "a.UOI9E0TaxbpSJlWq", 
    "a.hc6kXC4S3fhsi3xu", 
    "a.DcSwIub3oG9YB8oI", 
    "a.my5QKcx5kpSVz2Sp", 
    "a.t61dUNfBxZ1HC2ti", 
    "a.kjVqThAedvSIC5Ks", 
    "a.5RxbrP4oPy4XWiHt", 
    "a.C480cZQq8EWAHLsi", 
    "a.jTXpL7vSeJftu2De", 
    "a.QdP2AZHXuYbGha4A", 
    "a.AKbwOZAtzWeMTzZ0", 
    "a.YDdwMGXZoUrLGBXf", 
    "a.8spDiYS1a5I8UjtW"
  ], 
  "lastedited_iso": "2016-12-10T14:25:26", 
  "group": "", 
  "padid": "One_commit", 
  "versions": [
    {
      "url": "/pad/p/One_commit", 
      "code": 200, 
      "type": "pad"
    }, 
    {
      "url": "/home/pi/etherdump/One_commit.raw.txt", 
      "path": "/home/pi/etherdump/One_commit.raw.txt", 
      "code": 200, 
      "type": "text"
    }, 
    {
      "url": "/home/pi/etherdump/One_commit.diff.html", 
      "path": "/home/pi/etherdump/One_commit.diff.html", 
      "code": 200, 
      "type": "diffhtml"
    }, 
    {
      "url": "/home/pi/etherdump/One_commit.raw.html", 
      "path": "/home/pi/etherdump/One_commit.raw.html", 
      "code": 200, 
      "type": "html"
    }, 
    {
      "url": "/home/pi/etherdump/One_commit.meta.json", 
      "path": "/home/pi/etherdump/One_commit.meta.json", 
      "type": "meta"
    }
  ], 
  "lastedited_raw": 1481376326155, 
  "pad": "One_commit", 
  "pathbase": "/home/pi/etherdump/One_commit", 
  "revisions": 6785
}