{
  "author_ids": [
    "a.FWr6sWn3SdlWQ8ix"
  ], 
  "lastedited_iso": "2016-12-07T11:26:32", 
  "group": "", 
  "padid": "sunday", 
  "versions": [
    {
      "url": "/pad/p/sunday", 
      "code": 200, 
      "type": "pad"
    }, 
    {
      "url": "/home/pi/etherdump/sunday.raw.txt", 
      "path": "/home/pi/etherdump/sunday.raw.txt", 
      "code": 200, 
      "type": "text"
    }, 
    {
      "url": "/home/pi/etherdump/sunday.diff.html", 
      "path": "/home/pi/etherdump/sunday.diff.html", 
      "code": 200, 
      "type": "diffhtml"
    }, 
    {
      "url": "/home/pi/etherdump/sunday.raw.html", 
      "path": "/home/pi/etherdump/sunday.raw.html", 
      "code": 200, 
      "type": "html"
    }, 
    {
      "url": "/home/pi/etherdump/sunday.meta.json", 
      "path": "/home/pi/etherdump/sunday.meta.json", 
      "type": "meta"
    }
  ], 
  "lastedited_raw": 1481106392839, 
  "pad": "sunday", 
  "pathbase": "/home/pi/etherdump/sunday", 
  "revisions": 52
}