{
  "author_ids": [
    "a.QdP2AZHXuYbGha4A", 
    "a.ENp6OwciJxug8imY", 
    "a.H1ewq2NvTW6K3yzN", 
    "a.jc7kG6W9r5u5vxfL", 
    "a.VAxAJxcWsGtpN5jO", 
    "a.Tod6E8k1lvUQE4vp", 
    "a.AOJOxueZwuswgryK", 
    "a.WCvVRiDpeHBrcRPi", 
    "a.YDdwMGXZoUrLGBXf"
  ], 
  "lastedited_iso": "2016-12-06T10:48:49", 
  "group": "", 
  "padid": "team_orange", 
  "versions": [
    {
      "url": "/pad/p/team_orange", 
      "code": 200, 
      "type": "pad"
    }, 
    {
      "url": "/home/pi/etherdump/team_orange.raw.txt", 
      "path": "/home/pi/etherdump/team_orange.raw.txt", 
      "code": 200, 
      "type": "text"
    }, 
    {
      "url": "/home/pi/etherdump/team_orange.diff.html", 
      "path": "/home/pi/etherdump/team_orange.diff.html", 
      "code": 200, 
      "type": "diffhtml"
    }, 
    {
      "url": "/home/pi/etherdump/team_orange.raw.html", 
      "path": "/home/pi/etherdump/team_orange.raw.html", 
      "code": 200, 
      "type": "html"
    }, 
    {
      "url": "/home/pi/etherdump/team_orange.meta.json", 
      "path": "/home/pi/etherdump/team_orange.meta.json", 
      "type": "meta"
    }
  ], 
  "lastedited_raw": 1481017729375, 
  "pad": "team_orange", 
  "pathbase": "/home/pi/etherdump/team_orange", 
  "revisions": 4666
}