{
  "author_ids": [
    "a.o8i1PiD1eAo606s8", 
    "a.vzBjxGLk7IUbpHJv", 
    "a.f7VpTF5YKwqtXHfG", 
    "a.Y4MKIaWrfo4BvH0w", 
    "a.V09wzZl6LJ1OBkzP", 
    "a.fdnaDRBXXEw7zvbZ", 
    "a.xTVpE85aIoERSi9b", 
    "a.685HpaoV2joR3f7P"
  ], 
  "lastedited_iso": "2016-12-05T12:32:44", 
  "group": "", 
  "padid": "terms_of_use", 
  "versions": [
    {
      "url": "/pad/p/terms_of_use", 
      "code": 200, 
      "type": "pad"
    }, 
    {
      "url": "/home/pi/etherdump/terms_of_use.raw.txt", 
      "path": "/home/pi/etherdump/terms_of_use.raw.txt", 
      "code": 200, 
      "type": "text"
    }, 
    {
      "url": "/home/pi/etherdump/terms_of_use.diff.html", 
      "path": "/home/pi/etherdump/terms_of_use.diff.html", 
      "code": 200, 
      "type": "diffhtml"
    }, 
    {
      "url": "/home/pi/etherdump/terms_of_use.raw.html", 
      "path": "/home/pi/etherdump/terms_of_use.raw.html", 
      "code": 200, 
      "type": "html"
    }, 
    {
      "url": "/home/pi/etherdump/terms_of_use.meta.json", 
      "path": "/home/pi/etherdump/terms_of_use.meta.json", 
      "type": "meta"
    }
  ], 
  "lastedited_raw": 1480937564871, 
  "pad": "terms_of_use", 
  "pathbase": "/home/pi/etherdump/terms_of_use", 
  "revisions": 1718
}