{
  "author_ids": [
    "a.FWr6sWn3SdlWQ8ix"
  ], 
  "lastedited_iso": "2016-12-10T13:10:36", 
  "group": "", 
  "padid": "tmp", 
  "versions": [
    {
      "url": "/pad/p/tmp", 
      "code": 200, 
      "type": "pad"
    }, 
    {
      "url": "/home/pi/etherdump/tmp.raw.txt", 
      "path": "/home/pi/etherdump/tmp.raw.txt", 
      "code": 200, 
      "type": "text"
    }, 
    {
      "url": "/home/pi/etherdump/tmp.diff.html", 
      "path": "/home/pi/etherdump/tmp.diff.html", 
      "code": 200, 
      "type": "diffhtml"
    }, 
    {
      "url": "/home/pi/etherdump/tmp.raw.html", 
      "path": "/home/pi/etherdump/tmp.raw.html", 
      "code": 200, 
      "type": "html"
    }, 
    {
      "url": "/home/pi/etherdump/tmp.meta.json", 
      "path": "/home/pi/etherdump/tmp.meta.json", 
      "type": "meta"
    }
  ], 
  "lastedited_raw": 1481371836627, 
  "pad": "tmp", 
  "pathbase": "/home/pi/etherdump/tmp", 
  "revisions": 14
}